^C:\USERS\ZULLY\DOCUMENTS\GITHUB\BOMBERMAN-XD\TRABAJO FINAL\BOMBERMAN XD\DEBUG\.NETFRAMEWORK,VERSION=V4.5.ASSEMBLYATTRIBUTES.OBJ|C:\USERS\ZULLY\DOCUMENTS\GITHUB\BOMBERMAN-XD\TRABAJO FINAL\BOMBERMAN XD\DEBUG\MYFORM.OBJ
C:\USERS\ZULLY\DOCUMENTS\GITHUB\BOMBERMAN-XD\TRABAJO FINAL\DEBUG\BOMBERMAN XD.EXE
C:\USERS\ZULLY\DOCUMENTS\GITHUB\BOMBERMAN-XD\TRABAJO FINAL\DEBUG\BOMBERMAN XD.PDB
